…
## Pivot the persons columns within your households data to a long format in order to produce a similarly specified dataset that describes all persons residing within all households

```
# A tibble: 6,883 x 5
    size gender   age edu   wealth
   <dbl> <fct>  <dbl> <fct> <fct> 
 1     7 2          4 0     3     
 2     7 2         33 3     3     
 3     7 2         21 3     3     
 4     7 1         75 0     3     
 5     6 2         64 0     2     
 6     8 2          9 1     1     
 7     8 1          7 1     1     
 8     8 2         73 0     1     
 9     6 1          0 0     1     
10     7 1          1 0     3     
# ... with 6,873 more rows
```
…
